C:\Users\ゅ方\Documents\workspace-sts-3.9.9.RELEASE\spring-boot\src\main\java\com\springboot\server\config\SwaggerConfig.java
C:\Users\ゅ方\Documents\workspace-sts-3.9.9.RELEASE\spring-boot\src\main\java\com\springboot\server\controller\EmpMybatisController.java
C:\Users\ゅ方\Documents\workspace-sts-3.9.9.RELEASE\spring-boot\src\main\java\com\springboot\server\application\Application.java
C:\Users\ゅ方\Documents\workspace-sts-3.9.9.RELEASE\spring-boot\src\main\java\com\springboot\server\bean\Employee.java
C:\Users\ゅ方\Documents\workspace-sts-3.9.9.RELEASE\spring-boot\src\main\java\com\springboot\server\repository\EmployeeRepository.java
C:\Users\ゅ方\Documents\workspace-sts-3.9.9.RELEASE\spring-boot\src\main\java\com\springboot\server\service\EmpMybatisService.java
C:\Users\ゅ方\Documents\workspace-sts-3.9.9.RELEASE\spring-boot\src\main\java\com\springboot\server\security\SecurityConfig.java
C:\Users\ゅ方\Documents\workspace-sts-3.9.9.RELEASE\spring-boot\src\main\java\com\springboot\server\service\EmployeeService.java
C:\Users\ゅ方\Documents\workspace-sts-3.9.9.RELEASE\spring-boot\src\main\java\com\springboot\server\service\LogExecutionTime.java
C:\Users\ゅ方\Documents\workspace-sts-3.9.9.RELEASE\spring-boot\src\main\java\com\springboot\server\controller\EmployeeController.java
C:\Users\ゅ方\Documents\workspace-sts-3.9.9.RELEASE\spring-boot\src\main\java\com\springboot\server\mapper\EmpMybatisMapper.java
C:\Users\ゅ方\Documents\workspace-sts-3.9.9.RELEASE\spring-boot\src\main\java\com\springboot\server\service\ServiceAspect.java
